{
    "name": "Private GPT",
    "description": "Private GPT",
    "author": "Me",
    "licensed": false,
    "appdefversion": 2,
    "classifications": [
    "System"
    ],
    "machines": [
    "*"
    ],
    "vault-types": [
    "FILE",
    "BLOCK",
    "BLOCK_ARRAY",
    "OBJECT"
    ],
    "commands": {
        "test_webshell": {
            "path": "/usr/bin/bash",
            "name": "Webshell",
            "description": "Webshell",
            "webshell": true,
            "parameters": {}
        }
    },
    "image": {
        "data": "",
        "type": "image/png"
    }
}